{
	"inputs" : 
	[
		{
			"path" : "CMakeLists.txt"
		},
		{
			"isCMake" : true,
			"isExternal" : true,
			"path" : "C:/Qt/Tools/CMake_64/share/cmake-3.17/Modules/CMakeDetermineSystem.cmake"
		},
		{
			"isCMake" : true,
			"isExternal" : true,
			"path" : "C:/Qt/Tools/CMake_64/share/cmake-3.17/Modules/CMakeSystem.cmake.in"
		},
		{
			"path" : "CMakeFiles/3.17.1/CMakeSystem.cmake"
		},
		{
			"isCMake" : true,
			"isExternal" : true,
			"path" : "C:/Qt/Tools/CMake_64/share/cmake-3.17/Modules/CMakeNinjaFindMake.cmake"
		},
		{
			"isCMake" : true,
			"isExternal" : true,
			"path" : "C:/Qt/Tools/CMake_64/share/cmake-3.17/Modules/CMakeSystemSpecificInitialize.cmake"
		},
		{
			"isCMake" : true,
			"isExternal" : true,
			"path" : "C:/Qt/Tools/CMake_64/share/cmake-3.17/Modules/CMakeDetermineCXXCompiler.cmake"
		},
		{
			"isCMake" : true,
			"isExternal" : true,
			"path" : "C:/Qt/Tools/CMake_64/share/cmake-3.17/Modules/CMakeDetermineCompiler.cmake"
		},
		{
			"isCMake" : true,
			"isExternal" : true,
			"path" : "C:/Qt/Tools/CMake_64/share/cmake-3.17/Modules/Platform/Windows-Determine-CXX.cmake"
		},
		{
			"isCMake" : true,
			"isExternal" : true,
			"path" : "C:/Qt/Tools/CMake_64/share/cmake-3.17/Modules/CMakeDetermineCompilerId.cmake"
		},
		{
			"isCMake" : true,
			"isExternal" : true,
			"path" : "C:/Qt/Tools/CMake_64/share/cmake-3.17/Modules/CMakeCompilerIdDetection.cmake"
		},
		{
			"isCMake" : true,
			"isExternal" : true,
			"path" : "C:/Qt/Tools/CMake_64/share/cmake-3.17/Modules/Compiler/ADSP-DetermineCompiler.cmake"
		},
		{
			"isCMake" : true,
			"isExternal" : true,
			"path" : "C:/Qt/Tools/CMake_64/share/cmake-3.17/Modules/Compiler/ARMCC-DetermineCompiler.cmake"
		},
		{
			"isCMake" : true,
			"isExternal" : true,
			"path" : "C:/Qt/Tools/CMake_64/share/cmake-3.17/Modules/Compiler/ARMClang-DetermineCompiler.cmake"
		},
		{
			"isCMake" : true,
			"isExternal" : true,
			"path" : "C:/Qt/Tools/CMake_64/share/cmake-3.17/Modules/Compiler/AppleClang-DetermineCompiler.cmake"
		},
		{
			"isCMake" : true,
			"isExternal" : true,
			"path" : "C:/Qt/Tools/CMake_64/share/cmake-3.17/Modules/Compiler/Clang-DetermineCompilerInternal.cmake"
		},
		{
			"isCMake" : true,
			"isExternal" : true,
			"path" : "C:/Qt/Tools/CMake_64/share/cmake-3.17/Modules/Compiler/Borland-DetermineCompiler.cmake"
		},
		{
			"isCMake" : true,
			"isExternal" : true,
			"path" : "C:/Qt/Tools/CMake_64/share/cmake-3.17/Modules/Compiler/Clang-DetermineCompiler.cmake"
		},
		{
			"isCMake" : true,
			"isExternal" : true,
			"path" : "C:/Qt/Tools/CMake_64/share/cmake-3.17/Modules/Compiler/Clang-DetermineCompilerInternal.cmake"
		},
		{
			"isCMake" : true,
			"isExternal" : true,
			"path" : "C:/Qt/Tools/CMake_64/share/cmake-3.17/Modules/Compiler/Comeau-CXX-DetermineCompiler.cmake"
		},
		{
			"isCMake" : true,
			"isExternal" : true,
			"path" : "C:/Qt/Tools/CMake_64/share/cmake-3.17/Modules/Compiler/Compaq-CXX-DetermineCompiler.cmake"
		},
		{
			"isCMake" : true,
			"isExternal" : true,
			"path" : "C:/Qt/Tools/CMake_64/share/cmake-3.17/Modules/Compiler/Cray-DetermineCompiler.cmake"
		},
		{
			"isCMake" : true,
			"isExternal" : true,
			"path" : "C:/Qt/Tools/CMake_64/share/cmake-3.17/Modules/Compiler/Embarcadero-DetermineCompiler.cmake"
		},
		{
			"isCMake" : true,
			"isExternal" : true,
			"path" : "C:/Qt/Tools/CMake_64/share/cmake-3.17/Modules/Compiler/Fujitsu-DetermineCompiler.cmake"
		},
		{
			"isCMake" : true,
			"isExternal" : true,
			"path" : "C:/Qt/Tools/CMake_64/share/cmake-3.17/Modules/Compiler/GHS-DetermineCompiler.cmake"
		},
		{
			"isCMake" : true,
			"isExternal" : true,
			"path" : "C:/Qt/Tools/CMake_64/share/cmake-3.17/Modules/Compiler/GNU-CXX-DetermineCompiler.cmake"
		},
		{
			"isCMake" : true,
			"isExternal" : true,
			"path" : "C:/Qt/Tools/CMake_64/share/cmake-3.17/Modules/Compiler/HP-CXX-DetermineCompiler.cmake"
		},
		{
			"isCMake" : true,
			"isExternal" : true,
			"path" : "C:/Qt/Tools/CMake_64/share/cmake-3.17/Modules/Compiler/IAR-DetermineCompiler.cmake"
		},
		{
			"isCMake" : true,
			"isExternal" : true,
			"path" : "C:/Qt/Tools/CMake_64/share/cmake-3.17/Modules/Compiler/Intel-DetermineCompiler.cmake"
		},
		{
			"isCMake" : true,
			"isExternal" : true,
			"path" : "C:/Qt/Tools/CMake_64/share/cmake-3.17/Modules/Compiler/MSVC-DetermineCompiler.cmake"
		},
		{
			"isCMake" : true,
			"isExternal" : true,
			"path" : "C:/Qt/Tools/CMake_64/share/cmake-3.17/Modules/Compiler/NVIDIA-DetermineCompiler.cmake"
		},
		{
			"isCMake" : true,
			"isExternal" : true,
			"path" : "C:/Qt/Tools/CMake_64/share/cmake-3.17/Modules/Compiler/OpenWatcom-DetermineCompiler.cmake"
		},
		{
			"isCMake" : true,
			"isExternal" : true,
			"path" : "C:/Qt/Tools/CMake_64/share/cmake-3.17/Modules/Compiler/PGI-DetermineCompiler.cmake"
		},
		{
			"isCMake" : true,
			"isExternal" : true,
			"path" : "C:/Qt/Tools/CMake_64/share/cmake-3.17/Modules/Compiler/PathScale-DetermineCompiler.cmake"
		},
		{
			"isCMake" : true,
			"isExternal" : true,
			"path" : "C:/Qt/Tools/CMake_64/share/cmake-3.17/Modules/Compiler/SCO-DetermineCompiler.cmake"
		},
		{
			"isCMake" : true,
			"isExternal" : true,
			"path" : "C:/Qt/Tools/CMake_64/share/cmake-3.17/Modules/Compiler/SunPro-CXX-DetermineCompiler.cmake"
		},
		{
			"isCMake" : true,
			"isExternal" : true,
			"path" : "C:/Qt/Tools/CMake_64/share/cmake-3.17/Modules/Compiler/TI-DetermineCompiler.cmake"
		},
		{
			"isCMake" : true,
			"isExternal" : true,
			"path" : "C:/Qt/Tools/CMake_64/share/cmake-3.17/Modules/Compiler/VisualAge-CXX-DetermineCompiler.cmake"
		},
		{
			"isCMake" : true,
			"isExternal" : true,
			"path" : "C:/Qt/Tools/CMake_64/share/cmake-3.17/Modules/Compiler/IBMCPP-CXX-DetermineVersionInternal.cmake"
		},
		{
			"isCMake" : true,
			"isExternal" : true,
			"path" : "C:/Qt/Tools/CMake_64/share/cmake-3.17/Modules/Compiler/Watcom-DetermineCompiler.cmake"
		},
		{
			"isCMake" : true,
			"isExternal" : true,
			"path" : "C:/Qt/Tools/CMake_64/share/cmake-3.17/Modules/Compiler/XL-CXX-DetermineCompiler.cmake"
		},
		{
			"isCMake" : true,
			"isExternal" : true,
			"path" : "C:/Qt/Tools/CMake_64/share/cmake-3.17/Modules/Compiler/IBMCPP-CXX-DetermineVersionInternal.cmake"
		},
		{
			"isCMake" : true,
			"isExternal" : true,
			"path" : "C:/Qt/Tools/CMake_64/share/cmake-3.17/Modules/Compiler/XLClang-CXX-DetermineCompiler.cmake"
		},
		{
			"isCMake" : true,
			"isExternal" : true,
			"path" : "C:/Qt/Tools/CMake_64/share/cmake-3.17/Modules/Compiler/zOS-CXX-DetermineCompiler.cmake"
		},
		{
			"isCMake" : true,
			"isExternal" : true,
			"path" : "C:/Qt/Tools/CMake_64/share/cmake-3.17/Modules/Compiler/IBMCPP-CXX-DetermineVersionInternal.cmake"
		},
		{
			"isCMake" : true,
			"isExternal" : true,
			"path" : "C:/Qt/Tools/CMake_64/share/cmake-3.17/Modules/CMakeFindBinUtils.cmake"
		},
		{
			"isCMake" : true,
			"isExternal" : true,
			"path" : "C:/Qt/Tools/CMake_64/share/cmake-3.17/Modules/Compiler/GNU-FindBinUtils.cmake"
		},
		{
			"isCMake" : true,
			"isExternal" : true,
			"path" : "C:/Qt/Tools/CMake_64/share/cmake-3.17/Modules/CMakeCXXCompiler.cmake.in"
		},
		{
			"path" : "CMakeFiles/3.17.1/CMakeCXXCompiler.cmake"
		},
		{
			"isCMake" : true,
			"isExternal" : true,
			"path" : "C:/Qt/Tools/CMake_64/share/cmake-3.17/Modules/CMakeSystemSpecificInformation.cmake"
		},
		{
			"isCMake" : true,
			"isExternal" : true,
			"path" : "C:/Qt/Tools/CMake_64/share/cmake-3.17/Modules/CMakeGenericSystem.cmake"
		},
		{
			"isCMake" : true,
			"isExternal" : true,
			"path" : "C:/Qt/Tools/CMake_64/share/cmake-3.17/Modules/CMakeInitializeConfigs.cmake"
		},
		{
			"isCMake" : true,
			"isExternal" : true,
			"path" : "C:/Qt/Tools/CMake_64/share/cmake-3.17/Modules/Platform/Windows.cmake"
		},
		{
			"isCMake" : true,
			"isExternal" : true,
			"path" : "C:/Qt/Tools/CMake_64/share/cmake-3.17/Modules/Platform/WindowsPaths.cmake"
		},
		{
			"isCMake" : true,
			"isExternal" : true,
			"path" : "C:/Qt/Tools/CMake_64/share/cmake-3.17/Modules/CMakeCXXInformation.cmake"
		},
		{
			"isCMake" : true,
			"isExternal" : true,
			"path" : "C:/Qt/Tools/CMake_64/share/cmake-3.17/Modules/CMakeLanguageInformation.cmake"
		},
		{
			"isCMake" : true,
			"isExternal" : true,
			"path" : "C:/Qt/Tools/CMake_64/share/cmake-3.17/Modules/Compiler/GNU-CXX.cmake"
		},
		{
			"isCMake" : true,
			"isExternal" : true,
			"path" : "C:/Qt/Tools/CMake_64/share/cmake-3.17/Modules/Compiler/GNU.cmake"
		},
		{
			"isCMake" : true,
			"isExternal" : true,
			"path" : "C:/Qt/Tools/CMake_64/share/cmake-3.17/Modules/Compiler/CMakeCommonCompilerMacros.cmake"
		},
		{
			"isCMake" : true,
			"isExternal" : true,
			"path" : "C:/Qt/Tools/CMake_64/share/cmake-3.17/Modules/Internal/CMakeCheckCompilerFlag.cmake"
		},
		{
			"isCMake" : true,
			"isExternal" : true,
			"path" : "C:/Qt/Tools/CMake_64/share/cmake-3.17/Modules/CMakeCheckCompilerFlagCommonPatterns.cmake"
		},
		{
			"isCMake" : true,
			"isExternal" : true,
			"path" : "C:/Qt/Tools/CMake_64/share/cmake-3.17/Modules/Platform/Windows-GNU-CXX.cmake"
		},
		{
			"isCMake" : true,
			"isExternal" : true,
			"path" : "C:/Qt/Tools/CMake_64/share/cmake-3.17/Modules/Platform/Windows-GNU.cmake"
		},
		{
			"isCMake" : true,
			"isExternal" : true,
			"path" : "C:/Qt/Tools/CMake_64/share/cmake-3.17/Modules/CMakeDetermineRCCompiler.cmake"
		},
		{
			"isCMake" : true,
			"isExternal" : true,
			"path" : "C:/Qt/Tools/CMake_64/share/cmake-3.17/Modules/CMakeRCCompiler.cmake.in"
		},
		{
			"path" : "CMakeFiles/3.17.1/CMakeRCCompiler.cmake"
		},
		{
			"isCMake" : true,
			"isExternal" : true,
			"path" : "C:/Qt/Tools/CMake_64/share/cmake-3.17/Modules/CMakeRCInformation.cmake"
		},
		{
			"isCMake" : true,
			"isExternal" : true,
			"path" : "C:/Qt/Tools/CMake_64/share/cmake-3.17/Modules/Platform/Windows-windres.cmake"
		},
		{
			"isCMake" : true,
			"isExternal" : true,
			"path" : "C:/Qt/Tools/CMake_64/share/cmake-3.17/Modules/CMakeTestRCCompiler.cmake"
		},
		{
			"isCMake" : true,
			"isExternal" : true,
			"path" : "C:/Qt/Tools/CMake_64/share/cmake-3.17/Modules/CMakeCommonLanguageInclude.cmake"
		},
		{
			"isCMake" : true,
			"isExternal" : true,
			"path" : "C:/Qt/Tools/CMake_64/share/cmake-3.17/Modules/CMakeTestCXXCompiler.cmake"
		},
		{
			"isCMake" : true,
			"isExternal" : true,
			"path" : "C:/Qt/Tools/CMake_64/share/cmake-3.17/Modules/CMakeTestCompilerCommon.cmake"
		},
		{
			"isCMake" : true,
			"isExternal" : true,
			"path" : "C:/Qt/Tools/CMake_64/share/cmake-3.17/Modules/CMakeDetermineCompilerABI.cmake"
		},
		{
			"isCMake" : true,
			"isExternal" : true,
			"path" : "C:/Qt/Tools/CMake_64/share/cmake-3.17/Modules/CMakeParseImplicitIncludeInfo.cmake"
		},
		{
			"isCMake" : true,
			"isExternal" : true,
			"path" : "C:/Qt/Tools/CMake_64/share/cmake-3.17/Modules/CMakeParseImplicitLinkInfo.cmake"
		},
		{
			"isCMake" : true,
			"isExternal" : true,
			"path" : "C:/Qt/Tools/CMake_64/share/cmake-3.17/Modules/CMakeTestCompilerCommon.cmake"
		},
		{
			"isCMake" : true,
			"isExternal" : true,
			"path" : "C:/Qt/Tools/CMake_64/share/cmake-3.17/Modules/CMakeCXXCompilerABI.cpp"
		},
		{
			"isCMake" : true,
			"isExternal" : true,
			"path" : "C:/Qt/Tools/CMake_64/share/cmake-3.17/Modules/CMakeDetermineCompileFeatures.cmake"
		},
		{
			"isCMake" : true,
			"isExternal" : true,
			"path" : "C:/Qt/Tools/CMake_64/share/cmake-3.17/Modules/Internal/FeatureTesting.cmake"
		},
		{
			"isCMake" : true,
			"isExternal" : true,
			"path" : "C:/Qt/Tools/CMake_64/share/cmake-3.17/Modules/CMakeCXXCompiler.cmake.in"
		},
		{
			"path" : "CMakeFiles/3.17.1/CMakeCXXCompiler.cmake"
		},
		{
			"isCMake" : true,
			"isExternal" : true,
			"path" : "C:/Qt/Tools/CMake_64/share/cmake-3.17/Modules/Platform/Windows-GNU-CXX-ABI.cmake"
		}
	],
	"kind" : "cmakeFiles",
	"paths" : 
	{
		"build" : "C:/Es prog/pcs-solution/Esercitazione1_base/Exercise_2/C++",
		"source" : "C:/Es prog/pcs-solution/Esercitazione1_base/Exercise_2/C++"
	},
	"version" : 
	{
		"major" : 1,
		"minor" : 0
	}
}
